<svg width="131" height="131" viewBox="0 0 131 131" fill="none" xmlns="http://www.w3.org/2000/svg">
<path d="M65.5 90H41.1667V74H65.5M102 74V66L97.9444 46H33.0556L29 66V74H33.0556V98H73.6111V74H89.8333V98H97.9444V74M97.9444 34H33.0556V42H97.9444V34Z" fill="#5EB3F0"/>
</svg>
