<svg width="71" height="68" viewBox="0 0 71 68" fill="none" xmlns="http://www.w3.org/2000/svg">
<path d="M63.9 42.7053H7.1V21.6817H25.134L17.75 31.5978L23.501 35.6974L31.95 24.3447L35.5 19.5794L39.05 24.3447L47.499 35.6974L53.25 31.5978L45.866 21.6817H63.9M63.9 60.2249H7.1V53.217H63.9M24.85 7.66604C25.7915 7.66604 26.6945 8.03521 27.3602 8.69232C28.026 9.34943 28.4 10.2407 28.4 11.17C28.4 12.0993 28.026 12.9905 27.3602 13.6476C26.6945 14.3047 25.7915 14.6739 24.85 14.6739C23.9085 14.6739 23.0055 14.3047 22.3398 13.6476C21.674 12.9905 21.3 12.0993 21.3 11.17C21.3 10.2407 21.674 9.34943 22.3398 8.69232C23.0055 8.03521 23.9085 7.66604 24.85 7.66604ZM46.15 7.66604C47.0915 7.66604 47.9945 8.03521 48.6602 8.69232C49.326 9.34943 49.7 10.2407 49.7 11.17C49.7 12.0993 49.326 12.9905 48.6602 13.6476C47.9945 14.3047 47.0915 14.6739 46.15 14.6739C45.2085 14.6739 44.3055 14.3047 43.6398 13.6476C42.974 12.9905 42.6 12.0993 42.6 11.17C42.6 10.2407 42.974 9.34943 43.6398 8.69232C44.3055 8.03521 45.2085 7.66604 46.15 7.66604ZM63.9 14.6739H56.161C56.5515 13.5877 56.8 12.3963 56.8 11.17C56.8 8.38207 55.6779 5.70837 53.6807 3.73703C51.6834 1.76569 48.9746 0.658203 46.15 0.658203C42.4225 0.658203 39.192 2.55032 37.275 5.3885L35.5 7.66604L33.725 5.35346C31.808 2.55032 28.5775 0.658203 24.85 0.658203C22.0254 0.658203 19.3166 1.76569 17.3193 3.73703C15.3221 5.70837 14.2 8.38207 14.2 11.17C14.2 12.3963 14.4485 13.5877 14.839 14.6739H7.1C3.1595 14.6739 0 17.7924 0 21.6817V60.2249C0 64.1142 3.1595 67.2327 7.1 67.2327H63.9C67.8405 67.2327 71 64.1142 71 60.2249V21.6817C71 17.7924 67.8405 14.6739 63.9 14.6739Z" fill="#5EB3F0"/>
</svg>
