<svg width="73" height="66" viewBox="0 0 73 66" fill="none" xmlns="http://www.w3.org/2000/svg">
<path d="M61.7145 8.07867H4.38118V0.95752H61.7145V8.07867ZM40.2145 44.1473L29.4645 54.829V57.9267H4.38118V36.5633H0.797852V29.4421L4.38118 11.6392H61.7145L63.9004 22.5702C62.2879 22.9263 60.747 23.7452 59.5287 24.9558L47.847 36.5633H40.2145V44.1473ZM33.0479 36.5633H11.5479V50.8056H33.0479V36.5633ZM71.927 34.6762L67.197 29.9762C66.4804 29.2641 65.2979 29.2641 64.617 29.9762L61.1054 33.4656L68.4154 40.7292L71.927 37.2398C72.6437 36.5633 72.6437 35.3883 71.927 34.6762ZM36.6312 57.7843V65.0479H43.9412L65.907 43.2572L58.597 35.958L36.6312 57.7843Z" fill="#5EB3F0"/>
</svg>
