<svg width="65" height="63" viewBox="0 0 65 63" fill="none" xmlns="http://www.w3.org/2000/svg">
<path d="M58.5 13.6216H45.5V7.13672C45.5 5.41683 44.8152 3.76738 43.5962 2.55123C42.3772 1.33508 40.7239 0.651855 39 0.651855H26C22.3925 0.651855 19.5 3.53762 19.5 7.13672V13.6216H6.5C2.8925 13.6216 0 16.5074 0 20.1065V55.7732C0 57.4931 0.684819 59.1426 1.90381 60.3587C3.12279 61.5749 4.77609 62.2581 6.5 62.2581H58.5C60.2239 62.2581 61.8772 61.5749 63.0962 60.3587C64.3152 59.1426 65 57.4931 65 55.7732V20.1065C65 18.3866 64.3152 16.7371 63.0962 15.521C61.8772 14.3048 60.2239 13.6216 58.5 13.6216ZM26 7.13672H39V13.6216H26V7.13672ZM32.5 23.3489C34.6549 23.3489 36.7215 24.2029 38.2452 25.7231C39.769 27.2433 40.625 29.3051 40.625 31.455C40.625 33.6048 39.769 35.6667 38.2452 37.1868C36.7215 38.707 34.6549 39.5611 32.5 39.5611C30.3451 39.5611 28.2785 38.707 26.7548 37.1868C25.231 35.6667 24.375 33.6048 24.375 31.455C24.375 29.3051 25.231 27.2433 26.7548 25.7231C28.2785 24.2029 30.3451 23.3489 32.5 23.3489ZM48.75 55.7732H16.25V51.7202C16.25 47.2456 23.53 43.6141 32.5 43.6141C41.47 43.6141 48.75 47.2456 48.75 51.7202V55.7732Z" fill="#5EB3F0"/>
</svg>
